<svg width="19.000000" height="25.000000" viewBox="0 0 19 25" fill="none" xmlns="http://www.w3.org/2000/svg" xmlns:xlink="http://www.w3.org/1999/xlink">
	<desc>
			Created with Pixso.
	</desc>
	<defs>
		<clipPath id="clip1_2123">
			<rect id="Frame" width="19.000000" height="25.000000" fill="white" fill-opacity="0"/>
		</clipPath>
	</defs>
	<rect id="Frame" width="19.000000" height="25.000000" fill="#FFFFFF" fill-opacity="0"/>
	<g clip-path="url(#clip1_2123)">
		<path id="Vector" d="M0.949951 13L17.1323 13L11.21 20.7847C11.1743 20.832 11.146 20.8877 11.1267 20.9487C11.1074 21.0103 11.0974 21.0762 11.0974 21.1426C11.0974 21.209 11.1074 21.2744 11.1267 21.3359C11.146 21.397 11.1743 21.4531 11.21 21.5C11.2456 21.5469 11.288 21.584 11.3346 21.6094C11.3812 21.6348 11.4312 21.6479 11.4817 21.6479C11.5321 21.6479 11.5822 21.6348 11.6287 21.6094C11.6753 21.584 11.7177 21.5469 11.7534 21.5L18.3179 12.855C18.3358 12.8315 18.3518 12.8057 18.3654 12.7773C18.3717 12.7656 18.3774 12.7529 18.3824 12.7397L18.4015 12.6899L18.4128 12.6396C18.4139 12.626 18.4139 12.6113 18.4128 12.5972C18.4226 12.5332 18.4226 12.4668 18.4128 12.4023C18.4139 12.3882 18.4139 12.374 18.4128 12.3599L18.4015 12.3101L18.3824 12.2598C18.3774 12.2471 18.3717 12.2344 18.3654 12.2222C18.3518 12.1943 18.3358 12.1685 18.3179 12.145L11.7534 3.5C11.718 3.45215 11.6757 3.41455 11.629 3.38867C11.5824 3.36279 11.5323 3.34961 11.4817 3.34961C11.431 3.34961 11.381 3.36279 11.3342 3.38867C11.2876 3.41455 11.2454 3.45215 11.21 3.5C11.1747 3.54639 11.1466 3.60156 11.1274 3.66211C11.1084 3.72266 11.0985 3.78809 11.0985 3.85352C11.0985 3.91943 11.1084 3.98438 11.1274 4.04492C11.1466 4.10596 11.1747 4.16113 11.21 4.20752L17.1323 12L0.949951 12C0.849243 12 0.752563 12.0527 0.681274 12.1465C0.609985 12.2402 0.569946 12.3672 0.569946 12.5C0.569946 12.6323 0.609985 12.7598 0.681274 12.8535C0.752563 12.9473 0.849243 13 0.949951 13Z" fill="#000000" fill-opacity="1.000000" fill-rule="nonzero"/>
	</g>
</svg>
